Tutorial de Reprodutibilidade
…
# Dataset referencia
data("data_ref", package = "reprodutibilidade")

resumo <- ADPresumo(datasetN7, 
                    metadadosN7$CLASSE,  
                    colnames(datasetN7))

## Warning: Unknown or uninitialised column: `NOME`.

## 
##  Resumo Geral Obtido

print(resumo$resumo_total)                    

## # A tibble: 22 × 12
##    Nome    Classe   Min `Quartil 1` Mediana `Quartil 3`   Max Outliers_Per   NAs
##    <chr>   <chr>  <dbl>       <dbl>   <dbl>       <dbl> <dbl>        <dbl> <int>
##  1 MMPD    Numer…  2.33        2.89    3.09        3.36  4.06         3.99     5
##  2 MCFSFC… Numer…  0           0.06    0.1         0.13  0.23         1.51     5
##  3 PED(CI) Numer… 29.2        44.9    49.6        56.9  74.8          1.92     5
##  4 DRDAFD  Numer…  0           0.11    0.22        0.37  0.76         1.71     0
##  5 QA      Numer…  5           5       5           5     5           12.3   2605
##  6 DCAU10… Numer…  0           0.69    4.1        11.2  27.0          3.16     2
##  7 SRAAB   Numer…  0.02        0.29    0.4         0.47  0.74         8.1      0
##  8 NIAN    Numer…  0.2         0.2     0.6         0.6   1            0        5
##  9 PCM2AD  Numer…  0           0       0.28        0.81  2.02         5.6      0
## 10 ODRSAI  Numer…  0           0.27    1.3         3.6   8.59         5.89     0
## # ℹ 12 more rows
## # ℹ 3 more variables: Percentual_NAs <dbl>, Valores_Unicos <int>,
## #   Percentual_Unicos <dbl>
…
